{
  "hash": "0f647eec4c01a4bbc80a987fe50db45c",
  "result": {
    "engine": "julia",
    "markdown": "---\ntitle: \"PalmerPenguins.jl\"\ndate: 2020-07-28\ndate-modified: 2024-11-25\naliases:\n  - \"/blog/2020/07/palmerpenguins\"\ncategories:\n  - penguins\n  - julia\nabstract: >\n    The Palmer penguins dataset is an alternative to the controversial `iris` dataset for data exploration and visualization (but, of course, [not the only one](https://www.meganstodel.com/posts/no-to-iris/)).\n    The Julia package [`PalmerPenguins.jl`](https://github.com/devmotion/PalmerPenguins.jl) provides access to the raw and simplified versions of this dataset, similar to the original R package, without having to download and parse the raw data manually.\nformat:\n  html:\n    code-fold: show\n    code-tools: true\n    code-links:\n      - text: Project.toml\n        icon: file-code\n        href: Project.toml\n      - text: Manifest.toml\n        icon: file-code\n        href: Manifest.toml\nbibliography: references.bib\nresources:\n  - Project.toml\n  - Manifest.toml\nengine: julia\njulia:\n  env: [\"DATADEPS_ALWAYS_ACCEPT=true\"]\n---\n\n\n\nAre you looking for a dataset for data exploration and visualization?\nMaybe you should consider the [Palmer penguins dataset](https://allisonhorst.github.io/palmerpenguins/), which was published as an [R package](https://cloud.r-project.org/web/packages/palmerpenguins/index.html) recently [@Horst2020].\nI created the Julia package [`PalmerPenguins.jl`](https://github.com/devmotion/PalmerPenguins.jl) to simplify its use with the Julia programming language and increase its adoption within the Julia community.\n\n## Palmer penguins dataset {#palmer-penguins-dataset}\n\nThe Palmer penguins dataset was proposed as an alternative to the [`iris` dataset](https://en.wikipedia.org/wiki/Iris_flower_data_set) by @Fisher1936 for data exploration and visualization.\n\n\n\n{{< share-post https://twitter.com/allison_horst/status/1270046399418138625 >}}\n\n\n\n\nFisher was a vocal proponent of eugenics and published the `iris` dataset in the **Annals of Eugenics** in 1936 (!).\nHence there is growing sentiment in the scientific community that the use of the `iris` dataset is inappropriate.\n\n> One does not publish in the Annals of Eugenics in 1936 on a misunderstanding.\n> By using this dataset in 2020, we are sending a very strong message.\n>\n> — [Timothée Poisot](https://armchairecology.blog/iris-dataset)\n\n> Many people using iris will be unaware that it was first published in work by R A Fisher, a eugenicist with vile and harmful views on race.\n> In fact, the iris dataset was originally published in the Annals of Eugenics.\n> It is clear to me that knowingly using work that was itself used in pursuit of racist ideals is totally unacceptable.\n>\n> — [Megan Stodel](https://www.meganstodel.com/posts/no-to-iris)\n\n> I’ve long known about Ronald Fisher’s eugenicist past, but I admit that I have often thoughtlessly turned to iris when needing a small, boring data set to demonstrate a coding or data principle.\n>\n> But Daniella and Timothée Poisot are right: it’s time to retire iris.\n>\n> — [Garrick Aden-Buie](https://www.garrickadenbuie.com/blog/lets-move-on-from-iris)\n\nApart from that, the `iris` dataset is quite boring:\nit contains no missing values and:\n\n> With the exception of one or two points, the classes are linearly separable, and so classification algorithms reach almost perfect accuracy.\n>\n> — [Timothée Poisot](https://armchairecology.blog/iris-dataset)\n\nThe Palmer penguins dataset consists of measurements of 344 penguins from three islands in the [Palmer Archipelago, Antarctica](https://en.wikipedia.org/wiki/Palmer_Archipelago), that were collected by [Dr. Kristen Gorman](https://www.uaf.edu/cfos/people/faculty/detail/kristen-gorman.php) and the [Palmer Station, Antarctica LTER](https://pal.lternet.edu/) [@Gorman2014].\nThe simplified version of the dataset contains at most seven measurements for each penguin, namely the species (`Adelie`, `Chinstrap`, and `Gentoo`), the island (`Torgersen`, `Biscoe`, and `Dream`), the bill length (measured in mm), the bill depth (measured in mm), the flipper length (measured in mm), the body mass (measured in g), and the sex (`male` and `female`).\nIn total, 19 measurements are missing.\n\n![Palmer penguins. [Artwork](https://allisonhorst.github.io/palmerpenguins/reference/figures/lter_penguins.png) by [\\@allison_horst](https://twitter.com/allison_horst).](https://allisonhorst.github.io/palmerpenguins/reference/figures/lter_penguins.png)\n\n## Julia package {#julia-package}\n\nThe Julia package `PalmerPenguins.jl` is available in the standard Julia package registry, so you can install it and load it in the usual way by running\n\n\n\n::: {#2 .cell execution_count=1}\n``` {.julia .cell-code}\nusing Pkg\nPkg.add(\"PalmerPenguins\")\n\nusing PalmerPenguins\n```\n:::\n\n\n\n\n\nin the Julia REPL.\nThe package uses [`DataDeps.jl`](https://github.com/oxinabox/DataDeps.jl) to download a fixed (and hence reproducible) version of the dataset once instead of including a copy of the original dataset.\n\nAs explained in the [package's README](https://github.com/devmotion/PalmerPenguins.jl/blob/master/README.md), the simplified and the raw version of the Palmer penguins dataset can be loaded in a [Tables.jl-compatible format](https://github.com/JuliaData/Tables.jl).\nWe can inspect the names and types of the features in the simplified and the raw version by running\n\n\n\n::: {#4 .cell execution_count=1}\n``` {.julia .cell-code}\nusing Tables\n\nTables.schema(PalmerPenguins.load())\n```\n\n::: {.cell-output .cell-output-display execution_count=1}\n```\nTables.Schema:\n :species            InlineStrings.String15\n :island             InlineStrings.String15\n :bill_length_mm     Union{Missing, Float64}\n :bill_depth_mm      Union{Missing, Float64}\n :flipper_length_mm  Union{Missing, Int64}\n :body_mass_g        Union{Missing, Int64}\n :sex                Union{Missing, InlineStrings.String7}\n```\n:::\n:::\n\n\n\n\n\nand\n\n\n\n::: {#6 .cell execution_count=1}\n``` {.julia .cell-code}\nTables.schema(PalmerPenguins.load(; raw=true))\n```\n\n::: {.cell-output .cell-output-display execution_count=1}\n```\nTables.Schema:\n :studyName                     InlineStrings.String7\n Symbol(\"Sample Number\")        Int64\n :Species                       String\n :Region                        InlineStrings.String7\n :Island                        InlineStrings.String15\n :Stage                         InlineStrings.String31\n Symbol(\"Individual ID\")        InlineStrings.String7\n Symbol(\"Clutch Completion\")    Bool\n Symbol(\"Date Egg\")             Dates.Date\n Symbol(\"Culmen Length (mm)\")   Union{Missing, Float64}\n Symbol(\"Culmen Depth (mm)\")    Union{Missing, Float64}\n Symbol(\"Flipper Length (mm)\")  Union{Missing, Int64}\n Symbol(\"Body Mass (g)\")        Union{Missing, Int64}\n :Sex                           Union{Missing, InlineStrings.String7}\n Symbol(\"Delta 15 N (o/oo)\")    Union{Missing, Float64}\n Symbol(\"Delta 13 C (o/oo)\")    Union{Missing, Float64}\n :Comments                      Union{Missing, String}\n```\n:::\n:::\n\n\n\n\n\nWe also see that the names of the features in the simplified dataset are normalized to lowercase characters without whitespace and brackets.\n\nYou might want to convert the tables to a `DataFrame` object for downstream analyses.\nThe following code extracts the first five rows of the simplified dataset:\n\n\n\n::: {#8 .cell execution_count=1}\n``` {.julia .cell-code}\nusing DataFrames\n\nfirst(DataFrame(PalmerPenguins.load()), 5)\n```\n\n::: {.cell-output .cell-output-display execution_count=1}\n```{=html}\n<div><div style = \"float: left;\"><span>5×7 DataFrame</span></div><div style = \"clear: both;\"></div></div><div class = \"data-frame\" style = \"overflow-x: scroll;\"><table class = \"data-frame\" style = \"margin-bottom: 6px;\"><thead><tr class = \"header\"><th class = \"rowNumber\" style = \"font-weight: bold; text-align: right;\">Row</th><th style = \"text-align: left;\">species</th><th style = \"text-align: left;\">island</th><th style = \"text-align: left;\">bill_length_mm</th><th style = \"text-align: left;\">bill_depth_mm</th><th style = \"text-align: left;\">flipper_length_mm</th><th style = \"text-align: left;\">body_mass_g</th><th style = \"text-align: left;\">sex</th></tr><tr class = \"subheader headerLastRow\"><th class = \"rowNumber\" style = \"font-weight: bold; text-align: right;\"></th><th title = \"InlineStrings.String15\" style = \"text-align: left;\">String15</th><th title = \"InlineStrings.String15\" style = \"text-align: left;\">String15</th><th title = \"Union{Missing, Float64}\" style = \"text-align: left;\">Float64?</th><th title = \"Union{Missing, Float64}\" style = \"text-align: left;\">Float64?</th><th title = \"Union{Missing, Int64}\" style = \"text-align: left;\">Int64?</th><th title = \"Union{Missing, Int64}\" style = \"text-align: left;\">Int64?</th><th title = \"Union{Missing, InlineStrings.String7}\" style = \"text-align: left;\">String7?</th></tr></thead><tbody><tr><td class = \"rowNumber\" style = \"font-weight: bold; text-align: right;\">1</td><td style = \"text-align: left;\">Adelie</td><td style = \"text-align: left;\">Torgersen</td><td style = \"text-align: right;\">39.1</td><td style = \"text-align: right;\">18.7</td><td style = \"text-align: right;\">181</td><td style = \"text-align: right;\">3750</td><td style = \"text-align: left;\">male</td></tr><tr><td class = \"rowNumber\" style = \"font-weight: bold; text-align: right;\">2</td><td style = \"text-align: left;\">Adelie</td><td style = \"text-align: left;\">Torgersen</td><td style = \"text-align: right;\">39.5</td><td style = \"text-align: right;\">17.4</td><td style = \"text-align: right;\">186</td><td style = \"text-align: right;\">3800</td><td style = \"text-align: left;\">female</td></tr><tr><td class = \"rowNumber\" style = \"font-weight: bold; text-align: right;\">3</td><td style = \"text-align: left;\">Adelie</td><td style = \"text-align: left;\">Torgersen</td><td style = \"text-align: right;\">40.3</td><td style = \"text-align: right;\">18.0</td><td style = \"text-align: right;\">195</td><td style = \"text-align: right;\">3250</td><td style = \"text-align: left;\">female</td></tr><tr><td class = \"rowNumber\" style = \"font-weight: bold; text-align: right;\">4</td><td style = \"text-align: left;\">Adelie</td><td style = \"text-align: left;\">Torgersen</td><td style = \"font-style: italic; text-align: right;\">missing</td><td style = \"font-style: italic; text-align: right;\">missing</td><td style = \"font-style: italic; text-align: right;\">missing</td><td style = \"font-style: italic; text-align: right;\">missing</td><td style = \"font-style: italic; text-align: left;\">missing</td></tr><tr><td class = \"rowNumber\" style = \"font-weight: bold; text-align: right;\">5</td><td style = \"text-align: left;\">Adelie</td><td style = \"text-align: left;\">Torgersen</td><td style = \"text-align: right;\">36.7</td><td style = \"text-align: right;\">19.3</td><td style = \"text-align: right;\">193</td><td style = \"text-align: right;\">3450</td><td style = \"text-align: left;\">female</td></tr></tbody></table></div>\n```\n:::\n:::\n\n\n\n\n\nData can be extracted with the Tables.jl-interface as well without creating a `DataFrame` object, as shown in the following visualizations of the Palmer penguins dataset.\nThe following plots replicate the [official examples](https://allisonhorst.github.io/palmerpenguins/#examples) (even interactively!).\n\n\n\n::: {#10 .cell execution_count=1}\n``` {.julia .cell-code}\nusing PlotlyJS\n\ntrace = let data = PalmerPenguins.load()\n    scatter(;\n        mode=\"markers\",\n        x=Tables.getcolumn(data, :flipper_length_mm),\n        y=Tables.getcolumn(data, :body_mass_g),\n        transforms=[\n            attr(;\n                type=\"groupby\",\n                groups=Tables.getcolumn(data, :species),\n            ),\n        ],\n    )\nend\n\nlayout = Layout(;\n    xaxis=attr(; title=\"Flipper length (mm)\"),\n    yaxis=attr(; title=\"Body mass (g)\"),\n    template=templates[\"simple_white\"],\n)\n\nPlotlyJS.plot([trace], layout)\n```\n:::\n\n\n\n::: {#10_2 .cell execution_count=1}\n\n::: {.cell-output .cell-output-display execution_count=1}\n```{=html}\n<div>\n    <script src=\"https://cdnjs.cloudflare.com/ajax/libs/mathjax/2.7.5/MathJax.js?config=TeX-AMS-MML_SVG\"></script>\n    \n    <div\n        id=a978890c-ed08-407d-8638-1234bbd41da8\n        class=\"plotly-graph-div\"\n        style=\"height:100%; width:100%;\">\n    </div>\n    <script type=\"text/javascript\">\n        require([\"plotly\"], function(Plotly) {\n        window.PLOTLYENV = window.PLOTLYENV || {}\n        \n        if (document.getElementById('a978890c-ed08-407d-8638-1234bbd41da8')) {\n    Plotly.newPlot(\n        'a978890c-ed08-407d-8638-1234bbd41da8',\n        [{\"mode\":\"markers\",\"y\":[3750,3800,3250,null,3450,3650,3625,4675,3475,4250,3300,3700,3200,3800,4400,3700,3450,4500,3325,4200,3400,3600,3800,3950,3800,3800,3550,3200,3150,3950,3250,3900,3300,3900,3325,4150,3950,3550,3300,4650,3150,3900,3100,4400,3000,4600,3425,2975,3450,4150,3500,4300,3450,4050,2900,3700,3550,3800,2850,3750,3150,4400,3600,4050,2850,3950,3350,4100,3050,4450,3600,3900,3550,4150,3700,4250,3700,3900,3550,4000,3200,4700,3800,4200,3350,3550,3800,3500,3950,3600,3550,4300,3400,4450,3300,4300,3700,4350,2900,4100,3725,4725,3075,4250,2925,3550,3750,3900,3175,4775,3825,4600,3200,4275,3900,4075,2900,3775,3350,3325,3150,3500,3450,3875,3050,4000,3275,4300,3050,4000,3325,3500,3500,4475,3425,3900,3175,3975,3400,4250,3400,3475,3050,3725,3000,3650,4250,3475,3450,3750,3700,4000,4500,5700,4450,5700,5400,4550,4800,5200,4400,5150,4650,5550,4650,5850,4200,5850,4150,6300,4800,5350,5700,5000,4400,5050,5000,5100,4100,5650,4600,5550,5250,4700,5050,6050,5150,5400,4950,5250,4350,5350,3950,5700,4300,4750,5550,4900,4200,5400,5100,5300,4850,5300,4400,5000,4900,5050,4300,5000,4450,5550,4200,5300,4400,5650,4700,5700,4650,5800,4700,5550,4750,5000,5100,5200,4700,5800,4600,6000,4750,5950,4625,5450,4725,5350,4750,5600,4600,5300,4875,5550,4950,5400,4750,5650,4850,5200,4925,4875,4625,5250,4850,5600,4975,5500,4725,5500,4700,5500,4575,5500,5000,5950,4650,5500,4375,5850,4875,6000,4925,null,4850,5750,5200,5400,3500,3900,3650,3525,3725,3950,3250,3750,4150,3700,3800,3775,3700,4050,3575,4050,3300,3700,3450,4400,3600,3400,2900,3800,3300,4150,3400,3800,3700,4550,3200,4300,3350,4100,3600,3900,3850,4800,2700,4500,3950,3650,3550,3500,3675,4450,3400,4300,3250,3675,3325,3950,3600,4050,3350,3450,3250,4050,3800,3525,3950,3650,3650,4000,3400,3775,4100,3775],\"type\":\"scatter\",\"transforms\":[{\"groups\":[\"Adelie\",\"Adelie\",\"Adelie\",\"Adelie\",\"Adelie\",\"Adelie\",\"Adelie\",\"Adelie\",\"Adelie\",\"Adelie\",\"Adelie\",\"Adelie\",\"Adelie\",\"Adelie\",\"Adelie\",\"Adelie\",\"Adelie\",\"Adelie\",\"Adelie\",\"Adelie\",\"Adelie\",\"Adelie\",\"Adelie\",\"Adelie\",\"Adelie\",\"Adelie\",\"Adelie\",\"Adelie\",\"Adelie\",\"Adelie\",\"Adelie\",\"Adelie\",\"Adelie\",\"Adelie\",\"Adelie\",\"Adelie\",\"Adelie\",\"Adelie\",\"Adelie\",\"Adelie\",\"Adelie\",\"Adelie\",\"Adelie\",\"Adelie\",\"Adelie\",\"Adelie\",\"Adelie\",\"Adelie\",\"Adelie\",\"Adelie\",\"Adelie\",\"Adelie\",\"Adelie\",\"Adelie\",\"Adelie\",\"Adelie\",\"Adelie\",\"Adelie\",\"Adelie\",\"Adelie\",\"Adelie\",\"Adelie\",\"Adelie\",\"Adelie\",\"Adelie\",\"Adelie\",\"Adelie\",\"Adelie\",\"Adelie\",\"Adelie\",\"Adelie\",\"Adelie\",\"Adelie\",\"Adelie\",\"Adelie\",\"Adelie\",\"Adelie\",\"Adelie\",\"Adelie\",\"Adelie\",\"Adelie\",\"Adelie\",\"Adelie\",\"Adelie\",\"Adelie\",\"Adelie\",\"Adelie\",\"Adelie\",\"Adelie\",\"Adelie\",\"Adelie\",\"Adelie\",\"Adelie\",\"Adelie\",\"Adelie\",\"Adelie\",\"Adelie\",\"Adelie\",\"Adelie\",\"Adelie\",\"Adelie\",\"Adelie\",\"Adelie\",\"Adelie\",\"Adelie\",\"Adelie\",\"Adelie\",\"Adelie\",\"Adelie\",\"Adelie\",\"Adelie\",\"Adelie\",\"Adelie\",\"Adelie\",\"Adelie\",\"Adelie\",\"Adelie\",\"Adelie\",\"Adelie\",\"Adelie\",\"Adelie\",\"Adelie\",\"Adelie\",\"Adelie\",\"Adelie\",\"Adelie\",\"Adelie\",\"Adelie\",\"Adelie\",\"Adelie\",\"Adelie\",\"Adelie\",\"Adelie\",\"Adelie\",\"Adelie\",\"Adelie\",\"Adelie\",\"Adelie\",\"Adelie\",\"Adelie\",\"Adelie\",\"Adelie\",\"Adelie\",\"Adelie\",\"Adelie\",\"Adelie\",\"Adelie\",\"Adelie\",\"Adelie\",\"Adelie\",\"Adelie\",\"Adelie\",\"Gentoo\",\"Gentoo\",\"Gentoo\",\"Gentoo\",\"Gentoo\",\"Gentoo\",\"Gentoo\",\"Gentoo\",\"Gentoo\",\"Gentoo\",\"Gentoo\",\"Gentoo\",\"Gentoo\",\"Gentoo\",\"Gentoo\",\"Gentoo\",\"Gentoo\",\"Gentoo\",\"Gentoo\",\"Gentoo\",\"Gentoo\",\"Gentoo\",\"Gentoo\",\"Gentoo\",\"Gentoo\",\"Gentoo\",\"Gentoo\",\"Gentoo\",\"Gentoo\",\"Gentoo\",\"Gentoo\",\"Gentoo\",\"Gentoo\",\"Gentoo\",\"Gentoo\",\"Gentoo\",\"Gentoo\",\"Gentoo\",\"Gentoo\",\"Gentoo\",\"Gentoo\",\"Gentoo\",\"Gentoo\",\"Gentoo\",\"Gentoo\",\"Gentoo\",\"Gentoo\",\"Gentoo\",\"Gentoo\",\"Gentoo\",\"Gentoo\",\"Gentoo\",\"Gentoo\",\"Gentoo\",\"Gentoo\",\"Gentoo\",\"Gentoo\",\"Gentoo\",\"Gentoo\",\"Gentoo\",\"Gentoo\",\"Gentoo\",\"Gentoo\",\"Gentoo\",\"Gentoo\",\"Gentoo\",\"Gentoo\",\"Gentoo\",\"Gentoo\",\"Gentoo\",\"Gentoo\",\"Gentoo\",\"Gentoo\",\"Gentoo\",\"Gentoo\",\"Gentoo\",\"Gentoo\",\"Gentoo\",\"Gentoo\",\"Gentoo\",\"Gentoo\",\"Gentoo\",\"Gentoo\",\"Gentoo\",\"Gentoo\",\"Gentoo\",\"Gentoo\",\"Gentoo\",\"Gentoo\",\"Gentoo\",\"Gentoo\",\"Gentoo\",\"Gentoo\",\"Gentoo\",\"Gentoo\",\"Gentoo\",\"Gentoo\",\"Gentoo\",\"Gentoo\",\"Gentoo\",\"Gentoo\",\"Gentoo\",\"Gentoo\",\"Gentoo\",\"Gentoo\",\"Gentoo\",\"Gentoo\",\"Gentoo\",\"Gentoo\",\"Gentoo\",\"Gentoo\",\"Gentoo\",\"Gentoo\",\"Gentoo\",\"Gentoo\",\"Gentoo\",\"Gentoo\",\"Gentoo\",\"Gentoo\",\"Gentoo\",\"Gentoo\",\"Gentoo\",\"Gentoo\",\"Gentoo\",\"Chinstrap\",\"Chinstrap\",\"Chinstrap\",\"Chinstrap\",\"Chinstrap\",\"Chinstrap\",\"Chinstrap\",\"Chinstrap\",\"Chinstrap\",\"Chinstrap\",\"Chinstrap\",\"Chinstrap\",\"Chinstrap\",\"Chinstrap\",\"Chinstrap\",\"Chinstrap\",\"Chinstrap\",\"Chinstrap\",\"Chinstrap\",\"Chinstrap\",\"Chinstrap\",\"Chinstrap\",\"Chinstrap\",\"Chinstrap\",\"Chinstrap\",\"Chinstrap\",\"Chinstrap\",\"Chinstrap\",\"Chinstrap\",\"Chinstrap\",\"Chinstrap\",\"Chinstrap\",\"Chinstrap\",\"Chinstrap\",\"Chinstrap\",\"Chinstrap\",\"Chinstrap\",\"Chinstrap\",\"Chinstrap\",\"Chinstrap\",\"Chinstrap\",\"Chinstrap\",\"Chinstrap\",\"Chinstrap\",\"Chinstrap\",\"Chinstrap\",\"Chinstrap\",\"Chinstrap\",\"Chinstrap\",\"Chinstrap\",\"Chinstrap\",\"Chinstrap\",\"Chinstrap\",\"Chinstrap\",\"Chinstrap\",\"Chinstrap\",\"Chinstrap\",\"Chinstrap\",\"Chinstrap\",\"Chinstrap\",\"Chinstrap\",\"Chinstrap\",\"Chinstrap\",\"Chinstrap\",\"Chinstrap\",\"Chinstrap\",\"Chinstrap\",\"Chinstrap\"],\"type\":\"groupby\"}],\"x\":[181,186,195,null,193,190,181,195,193,190,186,180,182,191,198,185,195,197,184,194,174,180,189,185,180,187,183,187,172,180,178,178,188,184,195,196,190,180,181,184,182,195,186,196,185,190,182,179,190,191,186,188,190,200,187,191,186,193,181,194,185,195,185,192,184,192,195,188,190,198,190,190,196,197,190,195,191,184,187,195,189,196,187,193,191,194,190,189,189,190,202,205,185,186,187,208,190,196,178,192,192,203,183,190,193,184,199,190,181,197,198,191,193,197,191,196,188,199,189,189,187,198,176,202,186,199,191,195,191,210,190,197,193,199,187,190,191,200,185,193,193,187,188,190,192,185,190,184,195,193,187,201,211,230,210,218,215,210,211,219,209,215,214,216,214,213,210,217,210,221,209,222,218,215,213,215,215,215,216,215,210,220,222,209,207,230,220,220,213,219,208,208,208,225,210,216,222,217,210,225,213,215,210,220,210,225,217,220,208,220,208,224,208,221,214,231,219,230,214,229,220,223,216,221,221,217,216,230,209,220,215,223,212,221,212,224,212,228,218,218,212,230,218,228,212,224,214,226,216,222,203,225,219,228,215,228,216,215,210,219,208,209,216,229,213,230,217,230,217,222,214,null,215,222,212,213,192,196,193,188,197,198,178,197,195,198,193,194,185,201,190,201,197,181,190,195,181,191,187,193,195,197,200,200,191,205,187,201,187,203,195,199,195,210,192,205,210,187,196,196,196,201,190,212,187,198,199,201,193,203,187,197,191,203,202,194,206,189,195,207,202,193,210,198]}],\n        {\"xaxis\":{\"title\":\"Flipper length (mm)\"},\"template\":{\"layout\":{\"coloraxis\":{\"colorbar\":{\"ticks\":\"outside\",\"outlinewidth\":1,\"tickcolor\":\"rgb(36,36,36)\"}},\"xaxis\":{\"showgrid\":false,\"showline\":true,\"gridcolor\":\"rgb(232,232,232)\",\"zeroline\":false,\"ticks\":\"outside\",\"title\":{\"standoff\":15},\"zerolinecolor\":\"rgb(36,36,36)\",\"automargin\":true,\"linecolor\":\"rgb(36,36,36)\"},\"hovermode\":\"closest\",\"paper_bgcolor\":\"white\",\"geo\":{\"showlakes\":true,\"showland\":true,\"landcolor\":\"white\",\"bgcolor\":\"white\",\"subunitcolor\":\"white\",\"lakecolor\":\"white\"},\"colorscale\":{\"sequential\":[[0.0,\"#440154\"],[0.1111111111111111,\"#482878\"],[0.2222222222222222,\"#3e4989\"],[0.3333333333333333,\"#31688e\"],[0.4444444444444444,\"#26828e\"],[0.5555555555555556,\"#1f9e89\"],[0.6666666666666666,\"#35b779\"],[0.7777777777777778,\"#6ece58\"],[0.8888888888888888,\"#b5de2b\"],[1.0,\"#fde725\"]],\"diverging\":[[0.0,\"rgb(103,0,31)\"],[0.1,\"rgb(178,24,43)\"],[0.2,\"rgb(214,96,77)\"],[0.3,\"rgb(244,165,130)\"],[0.4,\"rgb(253,219,199)\"],[0.5,\"rgb(247,247,247)\"],[0.6,\"rgb(209,229,240)\"],[0.7,\"rgb(146,197,222)\"],[0.8,\"rgb(67,147,195)\"],[0.9,\"rgb(33,102,172)\"],[1.0,\"rgb(5,48,97)\"]],\"sequentialminus\":[[0.0,\"#440154\"],[0.1111111111111111,\"#482878\"],[0.2222222222222222,\"#3e4989\"],[0.3333333333333333,\"#31688e\"],[0.4444444444444444,\"#26828e\"],[0.5555555555555556,\"#1f9e89\"],[0.6666666666666666,\"#35b779\"],[0.7777777777777778,\"#6ece58\"],[0.8888888888888888,\"#b5de2b\"],[1.0,\"#fde725\"]]},\"yaxis\":{\"showgrid\":false,\"showline\":true,\"gridcolor\":\"rgb(232,232,232)\",\"zeroline\":false,\"ticks\":\"outside\",\"title\":{\"standoff\":15},\"zerolinecolor\":\"rgb(36,36,36)\",\"automargin\":true,\"linecolor\":\"rgb(36,36,36)\"},\"shapedefaults\":{\"line\":{\"width\":0},\"fillcolor\":\"black\",\"opacity\":0.3},\"hoverlabel\":{\"align\":\"left\"},\"mapbox\":{\"style\":\"light\"},\"polar\":{\"angularaxis\":{\"showgrid\":false,\"showline\":true,\"gridcolor\":\"rgb(232,232,232)\",\"ticks\":\"outside\",\"linecolor\":\"rgb(36,36,36)\"},\"bgcolor\":\"white\",\"radialaxis\":{\"showgrid\":false,\"showline\":true,\"gridcolor\":\"rgb(232,232,232)\",\"ticks\":\"outside\",\"linecolor\":\"rgb(36,36,36)\"}},\"autotypenumbers\":\"strict\",\"font\":{\"color\":\"rgb(36,36,36)\"},\"ternary\":{\"baxis\":{\"showgrid\":false,\"showline\":true,\"gridcolor\":\"rgb(232,232,232)\",\"ticks\":\"outside\",\"linecolor\":\"rgb(36,36,36)\"},\"bgcolor\":\"white\",\"caxis\":{\"showgrid\":false,\"showline\":true,\"gridcolor\":\"rgb(232,232,232)\",\"ticks\":\"outside\",\"linecolor\":\"rgb(36,36,36)\"},\"aaxis\":{\"showgrid\":false,\"showline\":true,\"gridcolor\":\"rgb(232,232,232)\",\"ticks\":\"outside\",\"linecolor\":\"rgb(36,36,36)\"}},\"annotationdefaults\":{\"arrowhead\":0,\"arrowwidth\":1},\"plot_bgcolor\":\"white\",\"title\":{\"x\":0.05},\"scene\":{\"xaxis\":{\"showgrid\":false,\"showline\":true,\"gridcolor\":\"rgb(232,232,232)\",\"gridwidth\":2,\"backgroundcolor\":\"white\",\"zeroline\":false,\"ticks\":\"outside\",\"showbackground\":true,\"zerolinecolor\":\"rgb(36,36,36)\",\"linecolor\":\"rgb(36,36,36)\"},\"zaxis\":{\"showgrid\":false,\"showline\":true,\"gridcolor\":\"rgb(232,232,232)\",\"gridwidth\":2,\"backgroundcolor\":\"white\",\"zeroline\":false,\"ticks\":\"outside\",\"showbackground\":true,\"zerolinecolor\":\"rgb(36,36,36)\",\"linecolor\":\"rgb(36,36,36)\"},\"yaxis\":{\"showgrid\":false,\"showline\":true,\"gridcolor\":\"rgb(232,232,232)\",\"gridwidth\":2,\"backgroundcolor\":\"white\",\"zeroline\":false,\"ticks\":\"outside\",\"showbackground\":true,\"zerolinecolor\":\"rgb(36,36,36)\",\"linecolor\":\"rgb(36,36,36)\"}},\"colorway\":[\"#1F77B4\",\"#FF7F0E\",\"#2CA02C\",\"#D62728\",\"#9467BD\",\"#8C564B\",\"#E377C2\",\"#7F7F7F\",\"#BCBD22\",\"#17BECF\"]},\"data\":{\"barpolar\":[{\"type\":\"barpolar\",\"marker\":{\"line\":{\"color\":\"white\",\"width\":0.5}}}],\"carpet\":[{\"aaxis\":{\"gridcolor\":\"white\",\"endlinecolor\":\"rgb(36,36,36)\",\"minorgridcolor\":\"white\",\"startlinecolor\":\"rgb(36,36,36)\",\"linecolor\":\"white\"},\"type\":\"carpet\",\"baxis\":{\"gridcolor\":\"white\",\"endlinecolor\":\"rgb(36,36,36)\",\"minorgridcolor\":\"white\",\"startlinecolor\":\"rgb(36,36,36)\",\"linecolor\":\"white\"}}],\"scatterpolar\":[{\"type\":\"scatterpolar\",\"marker\":{\"colorbar\":{\"ticks\":\"outside\",\"outlinewidth\":1,\"tickcolor\":\"rgb(36,36,36)\"}}}],\"parcoords\":[{\"line\":{\"colorbar\":{\"ticks\":\"outside\",\"outlinewidth\":1,\"tickcolor\":\"rgb(36,36,36)\"}},\"type\":\"parcoords\"}],\"scatter\":[{\"type\":\"scatter\",\"marker\":{\"colorbar\":{\"ticks\":\"outside\",\"outlinewidth\":1,\"tickcolor\":\"rgb(36,36,36)\"}}}],\"histogram2dcontour\":[{\"colorbar\":{\"ticks\":\"outside\",\"outlinewidth\":1,\"tickcolor\":\"rgb(36,36,36)\"},\"type\":\"histogram2dcontour\",\"colorscale\":[[0.0,\"#440154\"],[0.1111111111111111,\"#482878\"],[0.2222222222222222,\"#3e4989\"],[0.3333333333333333,\"#31688e\"],[0.4444444444444444,\"#26828e\"],[0.5555555555555556,\"#1f9e89\"],[0.6666666666666666,\"#35b779\"],[0.7777777777777778,\"#6ece58\"],[0.8888888888888888,\"#b5de2b\"],[1.0,\"#fde725\"]]}],\"contour\":[{\"colorbar\":{\"ticks\":\"outside\",\"outlinewidth\":1,\"tickcolor\":\"rgb(36,36,36)\"},\"type\":\"contour\",\"colorscale\":[[0.0,\"#440154\"],[0.1111111111111111,\"#482878\"],[0.2222222222222222,\"#3e4989\"],[0.3333333333333333,\"#31688e\"],[0.4444444444444444,\"#26828e\"],[0.5555555555555556,\"#1f9e89\"],[0.6666666666666666,\"#35b779\"],[0.7777777777777778,\"#6ece58\"],[0.8888888888888888,\"#b5de2b\"],[1.0,\"#fde725\"]]}],\"scattercarpet\":[{\"type\":\"scattercarpet\",\"marker\":{\"colorbar\":{\"ticks\":\"outside\",\"outlinewidth\":1,\"tickcolor\":\"rgb(36,36,36)\"}}}],\"mesh3d\":[{\"colorbar\":{\"ticks\":\"outside\",\"outlinewidth\":1,\"tickcolor\":\"rgb(36,36,36)\"},\"type\":\"mesh3d\"}],\"surface\":[{\"colorbar\":{\"ticks\":\"outside\",\"outlinewidth\":1,\"tickcolor\":\"rgb(36,36,36)\"},\"type\":\"surface\",\"colorscale\":[[0.0,\"#440154\"],[0.1111111111111111,\"#482878\"],[0.2222222222222222,\"#3e4989\"],[0.3333333333333333,\"#31688e\"],[0.4444444444444444,\"#26828e\"],[0.5555555555555556,\"#1f9e89\"],[0.6666666666666666,\"#35b779\"],[0.7777777777777778,\"#6ece58\"],[0.8888888888888888,\"#b5de2b\"],[1.0,\"#fde725\"]]}],\"scattermapbox\":[{\"type\":\"scattermapbox\",\"marker\":{\"colorbar\":{\"ticks\":\"outside\",\"outlinewidth\":1,\"tickcolor\":\"rgb(36,36,36)\"}}}],\"scattergeo\":[{\"type\":\"scattergeo\",\"marker\":{\"colorbar\":{\"ticks\":\"outside\",\"outlinewidth\":1,\"tickcolor\":\"rgb(36,36,36)\"}}}],\"histogram\":[{\"type\":\"histogram\",\"marker\":{\"line\":{\"color\":\"white\",\"width\":0.6}}}],\"pie\":[{\"type\":\"pie\",\"automargin\":true}],\"choropleth\":[{\"colorbar\":{\"ticks\":\"outside\",\"outlinewidth\":1,\"tickcolor\":\"rgb(36,36,36)\"},\"type\":\"choropleth\"}],\"heatmapgl\":[{\"colorbar\":{\"ticks\":\"outside\",\"outlinewidth\":1,\"tickcolor\":\"rgb(36,36,36)\"},\"type\":\"heatmapgl\",\"colorscale\":[[0.0,\"#440154\"],[0.1111111111111111,\"#482878\"],[0.2222222222222222,\"#3e4989\"],[0.3333333333333333,\"#31688e\"],[0.4444444444444444,\"#26828e\"],[0.5555555555555556,\"#1f9e89\"],[0.6666666666666666,\"#35b779\"],[0.7777777777777778,\"#6ece58\"],[0.8888888888888888,\"#b5de2b\"],[1.0,\"#fde725\"]]}],\"bar\":[{\"type\":\"bar\",\"error_y\":{\"color\":\"rgb(36,36,36)\"},\"error_x\":{\"color\":\"rgb(36,36,36)\"},\"marker\":{\"line\":{\"color\":\"white\",\"width\":0.5}}}],\"heatmap\":[{\"colorbar\":{\"ticks\":\"outside\",\"outlinewidth\":1,\"tickcolor\":\"rgb(36,36,36)\"},\"type\":\"heatmap\",\"colorscale\":[[0.0,\"#440154\"],[0.1111111111111111,\"#482878\"],[0.2222222222222222,\"#3e4989\"],[0.3333333333333333,\"#31688e\"],[0.4444444444444444,\"#26828e\"],[0.5555555555555556,\"#1f9e89\"],[0.6666666666666666,\"#35b779\"],[0.7777777777777778,\"#6ece58\"],[0.8888888888888888,\"#b5de2b\"],[1.0,\"#fde725\"]]}],\"contourcarpet\":[{\"colorbar\":{\"ticks\":\"outside\",\"outlinewidth\":1,\"tickcolor\":\"rgb(36,36,36)\"},\"type\":\"contourcarpet\"}],\"table\":[{\"type\":\"table\",\"header\":{\"line\":{\"color\":\"white\"},\"fill\":{\"color\":\"rgb(217,217,217)\"}},\"cells\":{\"line\":{\"color\":\"white\"},\"fill\":{\"color\":\"rgb(237,237,237)\"}}}],\"scatter3d\":[{\"line\":{\"colorbar\":{\"ticks\":\"outside\",\"outlinewidth\":1,\"tickcolor\":\"rgb(36,36,36)\"}},\"type\":\"scatter3d\",\"marker\":{\"colorbar\":{\"ticks\":\"outside\",\"outlinewidth\":1,\"tickcolor\":\"rgb(36,36,36)\"}}}],\"scattergl\":[{\"type\":\"scattergl\",\"marker\":{\"colorbar\":{\"ticks\":\"outside\",\"outlinewidth\":1,\"tickcolor\":\"rgb(36,36,36)\"}}}],\"histogram2d\":[{\"colorbar\":{\"ticks\":\"outside\",\"outlinewidth\":1,\"tickcolor\":\"rgb(36,36,36)\"},\"type\":\"histogram2d\",\"colorscale\":[[0.0,\"#440154\"],[0.1111111111111111,\"#482878\"],[0.2222222222222222,\"#3e4989\"],[0.3333333333333333,\"#31688e\"],[0.4444444444444444,\"#26828e\"],[0.5555555555555556,\"#1f9e89\"],[0.6666666666666666,\"#35b779\"],[0.7777777777777778,\"#6ece58\"],[0.8888888888888888,\"#b5de2b\"],[1.0,\"#fde725\"]]}],\"scatterternary\":[{\"type\":\"scatterternary\",\"marker\":{\"colorbar\":{\"ticks\":\"outside\",\"outlinewidth\":1,\"tickcolor\":\"rgb(36,36,36)\"}}}],\"scatterpolargl\":[{\"type\":\"scatterpolargl\",\"marker\":{\"colorbar\":{\"ticks\":\"outside\",\"outlinewidth\":1,\"tickcolor\":\"rgb(36,36,36)\"}}}]}},\"margin\":{\"l\":50,\"b\":50,\"r\":50,\"t\":60},\"yaxis\":{\"title\":\"Body mass (g)\"}},\n        {\"editable\":false,\"responsive\":true,\"staticPlot\":false,\"scrollZoom\":true},\n    )\n}\n\n        });\n    </script>\n</div>\n```\n:::\n:::\n\n\n\n::: {#12 .cell execution_count=1}\n``` {.julia .cell-code}\ntrace = let data = PalmerPenguins.load()\n    histogram(;\n        x=Tables.getcolumn(data, :flipper_length_mm),\n        opacity=0.75,\n        transforms=[\n            attr(;\n                type=\"groupby\",\n                groups=Tables.getcolumn(data, :species),\n            ),\n        ],\n    )\nend\n\nlayout = Layout(;\n    xaxis=attr(; title=\"Flipper length (mm)\"),\n    yaxis=attr(; title=\"Frequency\"),\n    barmode=\"overlay\",\n    template=templates[\"simple_white\"],\n)\n\nPlotlyJS.plot([trace], layout)\n```\n:::\n\n\n::: {#12_1 .cell execution_count=1}\n\n::: {.cell-output .cell-output-display execution_count=1}\n```{=html}\n<div>\n    <script src=\"https://cdnjs.cloudflare.com/ajax/libs/mathjax/2.7.5/MathJax.js?config=TeX-AMS-MML_SVG\"></script>\n    \n    <div\n        id=528c7b1b-6030-4c5c-bda4-1a5d91124193\n        class=\"plotly-graph-div\"\n        style=\"height:100%; width:100%;\">\n    </div>\n    <script type=\"text/javascript\">\n        require([\"plotly\"], function(Plotly) {\n        window.PLOTLYENV = window.PLOTLYENV || {}\n        \n        if (document.getElementById('528c7b1b-6030-4c5c-bda4-1a5d91124193')) {\n    Plotly.newPlot(\n        '528c7b1b-6030-4c5c-bda4-1a5d91124193',\n        [{\"type\":\"histogram\",\"opacity\":0.75,\"transforms\":[{\"groups\":[\"Adelie\",\"Adelie\",\"Adelie\",\"Adelie\",\"Adelie\",\"Adelie\",\"Adelie\",\"Adelie\",\"Adelie\",\"Adelie\",\"Adelie\",\"Adelie\",\"Adelie\",\"Adelie\",\"Adelie\",\"Adelie\",\"Adelie\",\"Adelie\",\"Adelie\",\"Adelie\",\"Adelie\",\"Adelie\",\"Adelie\",\"Adelie\",\"Adelie\",\"Adelie\",\"Adelie\",\"Adelie\",\"Adelie\",\"Adelie\",\"Adelie\",\"Adelie\",\"Adelie\",\"Adelie\",\"Adelie\",\"Adelie\",\"Adelie\",\"Adelie\",\"Adelie\",\"Adelie\",\"Adelie\",\"Adelie\",\"Adelie\",\"Adelie\",\"Adelie\",\"Adelie\",\"Adelie\",\"Adelie\",\"Adelie\",\"Adelie\",\"Adelie\",\"Adelie\",\"Adelie\",\"Adelie\",\"Adelie\",\"Adelie\",\"Adelie\",\"Adelie\",\"Adelie\",\"Adelie\",\"Adelie\",\"Adelie\",\"Adelie\",\"Adelie\",\"Adelie\",\"Adelie\",\"Adelie\",\"Adelie\",\"Adelie\",\"Adelie\",\"Adelie\",\"Adelie\",\"Adelie\",\"Adelie\",\"Adelie\",\"Adelie\",\"Adelie\",\"Adelie\",\"Adelie\",\"Adelie\",\"Adelie\",\"Adelie\",\"Adelie\",\"Adelie\",\"Adelie\",\"Adelie\",\"Adelie\",\"Adelie\",\"Adelie\",\"Adelie\",\"Adelie\",\"Adelie\",\"Adelie\",\"Adelie\",\"Adelie\",\"Adelie\",\"Adelie\",\"Adelie\",\"Adelie\",\"Adelie\",\"Adelie\",\"Adelie\",\"Adelie\",\"Adelie\",\"Adelie\",\"Adelie\",\"Adelie\",\"Adelie\",\"Adelie\",\"Adelie\",\"Adelie\",\"Adelie\",\"Adelie\",\"Adelie\",\"Adelie\",\"Adelie\",\"Adelie\",\"Adelie\",\"Adelie\",\"Adelie\",\"Adelie\",\"Adelie\",\"Adelie\",\"Adelie\",\"Adelie\",\"Adelie\",\"Adelie\",\"Adelie\",\"Adelie\",\"Adelie\",\"Adelie\",\"Adelie\",\"Adelie\",\"Adelie\",\"Adelie\",\"Adelie\",\"Adelie\",\"Adelie\",\"Adelie\",\"Adelie\",\"Adelie\",\"Adelie\",\"Adelie\",\"Adelie\",\"Adelie\",\"Adelie\",\"Adelie\",\"Adelie\",\"Adelie\",\"Adelie\",\"Adelie\",\"Adelie\",\"Gentoo\",\"Gentoo\",\"Gentoo\",\"Gentoo\",\"Gentoo\",\"Gentoo\",\"Gentoo\",\"Gentoo\",\"Gentoo\",\"Gentoo\",\"Gentoo\",\"Gentoo\",\"Gentoo\",\"Gentoo\",\"Gentoo\",\"Gentoo\",\"Gentoo\",\"Gentoo\",\"Gentoo\",\"Gentoo\",\"Gentoo\",\"Gentoo\",\"Gentoo\",\"Gentoo\",\"Gentoo\",\"Gentoo\",\"Gentoo\",\"Gentoo\",\"Gentoo\",\"Gentoo\",\"Gentoo\",\"Gentoo\",\"Gentoo\",\"Gentoo\",\"Gentoo\",\"Gentoo\",\"Gentoo\",\"Gentoo\",\"Gentoo\",\"Gentoo\",\"Gentoo\",\"Gentoo\",\"Gentoo\",\"Gentoo\",\"Gentoo\",\"Gentoo\",\"Gentoo\",\"Gentoo\",\"Gentoo\",\"Gentoo\",\"Gentoo\",\"Gentoo\",\"Gentoo\",\"Gentoo\",\"Gentoo\",\"Gentoo\",\"Gentoo\",\"Gentoo\",\"Gentoo\",\"Gentoo\",\"Gentoo\",\"Gentoo\",\"Gentoo\",\"Gentoo\",\"Gentoo\",\"Gentoo\",\"Gentoo\",\"Gentoo\",\"Gentoo\",\"Gentoo\",\"Gentoo\",\"Gentoo\",\"Gentoo\",\"Gentoo\",\"Gentoo\",\"Gentoo\",\"Gentoo\",\"Gentoo\",\"Gentoo\",\"Gentoo\",\"Gentoo\",\"Gentoo\",\"Gentoo\",\"Gentoo\",\"Gentoo\",\"Gentoo\",\"Gentoo\",\"Gentoo\",\"Gentoo\",\"Gentoo\",\"Gentoo\",\"Gentoo\",\"Gentoo\",\"Gentoo\",\"Gentoo\",\"Gentoo\",\"Gentoo\",\"Gentoo\",\"Gentoo\",\"Gentoo\",\"Gentoo\",\"Gentoo\",\"Gentoo\",\"Gentoo\",\"Gentoo\",\"Gentoo\",\"Gentoo\",\"Gentoo\",\"Gentoo\",\"Gentoo\",\"Gentoo\",\"Gentoo\",\"Gentoo\",\"Gentoo\",\"Gentoo\",\"Gentoo\",\"Gentoo\",\"Gentoo\",\"Gentoo\",\"Gentoo\",\"Gentoo\",\"Gentoo\",\"Gentoo\",\"Gentoo\",\"Chinstrap\",\"Chinstrap\",\"Chinstrap\",\"Chinstrap\",\"Chinstrap\",\"Chinstrap\",\"Chinstrap\",\"Chinstrap\",\"Chinstrap\",\"Chinstrap\",\"Chinstrap\",\"Chinstrap\",\"Chinstrap\",\"Chinstrap\",\"Chinstrap\",\"Chinstrap\",\"Chinstrap\",\"Chinstrap\",\"Chinstrap\",\"Chinstrap\",\"Chinstrap\",\"Chinstrap\",\"Chinstrap\",\"Chinstrap\",\"Chinstrap\",\"Chinstrap\",\"Chinstrap\",\"Chinstrap\",\"Chinstrap\",\"Chinstrap\",\"Chinstrap\",\"Chinstrap\",\"Chinstrap\",\"Chinstrap\",\"Chinstrap\",\"Chinstrap\",\"Chinstrap\",\"Chinstrap\",\"Chinstrap\",\"Chinstrap\",\"Chinstrap\",\"Chinstrap\",\"Chinstrap\",\"Chinstrap\",\"Chinstrap\",\"Chinstrap\",\"Chinstrap\",\"Chinstrap\",\"Chinstrap\",\"Chinstrap\",\"Chinstrap\",\"Chinstrap\",\"Chinstrap\",\"Chinstrap\",\"Chinstrap\",\"Chinstrap\",\"Chinstrap\",\"Chinstrap\",\"Chinstrap\",\"Chinstrap\",\"Chinstrap\",\"Chinstrap\",\"Chinstrap\",\"Chinstrap\",\"Chinstrap\",\"Chinstrap\",\"Chinstrap\",\"Chinstrap\"],\"type\":\"groupby\"}],\"x\":[181,186,195,null,193,190,181,195,193,190,186,180,182,191,198,185,195,197,184,194,174,180,189,185,180,187,183,187,172,180,178,178,188,184,195,196,190,180,181,184,182,195,186,196,185,190,182,179,190,191,186,188,190,200,187,191,186,193,181,194,185,195,185,192,184,192,195,188,190,198,190,190,196,197,190,195,191,184,187,195,189,196,187,193,191,194,190,189,189,190,202,205,185,186,187,208,190,196,178,192,192,203,183,190,193,184,199,190,181,197,198,191,193,197,191,196,188,199,189,189,187,198,176,202,186,199,191,195,191,210,190,197,193,199,187,190,191,200,185,193,193,187,188,190,192,185,190,184,195,193,187,201,211,230,210,218,215,210,211,219,209,215,214,216,214,213,210,217,210,221,209,222,218,215,213,215,215,215,216,215,210,220,222,209,207,230,220,220,213,219,208,208,208,225,210,216,222,217,210,225,213,215,210,220,210,225,217,220,208,220,208,224,208,221,214,231,219,230,214,229,220,223,216,221,221,217,216,230,209,220,215,223,212,221,212,224,212,228,218,218,212,230,218,228,212,224,214,226,216,222,203,225,219,228,215,228,216,215,210,219,208,209,216,229,213,230,217,230,217,222,214,null,215,222,212,213,192,196,193,188,197,198,178,197,195,198,193,194,185,201,190,201,197,181,190,195,181,191,187,193,195,197,200,200,191,205,187,201,187,203,195,199,195,210,192,205,210,187,196,196,196,201,190,212,187,198,199,201,193,203,187,197,191,203,202,194,206,189,195,207,202,193,210,198]}],\n        {\"xaxis\":{\"title\":\"Flipper length (mm)\"},\"template\":{\"layout\":{\"coloraxis\":{\"colorbar\":{\"ticks\":\"outside\",\"outlinewidth\":1,\"tickcolor\":\"rgb(36,36,36)\"}},\"xaxis\":{\"showgrid\":false,\"showline\":true,\"gridcolor\":\"rgb(232,232,232)\",\"zeroline\":false,\"ticks\":\"outside\",\"title\":{\"standoff\":15},\"zerolinecolor\":\"rgb(36,36,36)\",\"automargin\":true,\"linecolor\":\"rgb(36,36,36)\"},\"hovermode\":\"closest\",\"paper_bgcolor\":\"white\",\"geo\":{\"showlakes\":true,\"showland\":true,\"landcolor\":\"white\",\"bgcolor\":\"white\",\"subunitcolor\":\"white\",\"lakecolor\":\"white\"},\"colorscale\":{\"sequential\":[[0.0,\"#440154\"],[0.1111111111111111,\"#482878\"],[0.2222222222222222,\"#3e4989\"],[0.3333333333333333,\"#31688e\"],[0.4444444444444444,\"#26828e\"],[0.5555555555555556,\"#1f9e89\"],[0.6666666666666666,\"#35b779\"],[0.7777777777777778,\"#6ece58\"],[0.8888888888888888,\"#b5de2b\"],[1.0,\"#fde725\"]],\"diverging\":[[0.0,\"rgb(103,0,31)\"],[0.1,\"rgb(178,24,43)\"],[0.2,\"rgb(214,96,77)\"],[0.3,\"rgb(244,165,130)\"],[0.4,\"rgb(253,219,199)\"],[0.5,\"rgb(247,247,247)\"],[0.6,\"rgb(209,229,240)\"],[0.7,\"rgb(146,197,222)\"],[0.8,\"rgb(67,147,195)\"],[0.9,\"rgb(33,102,172)\"],[1.0,\"rgb(5,48,97)\"]],\"sequentialminus\":[[0.0,\"#440154\"],[0.1111111111111111,\"#482878\"],[0.2222222222222222,\"#3e4989\"],[0.3333333333333333,\"#31688e\"],[0.4444444444444444,\"#26828e\"],[0.5555555555555556,\"#1f9e89\"],[0.6666666666666666,\"#35b779\"],[0.7777777777777778,\"#6ece58\"],[0.8888888888888888,\"#b5de2b\"],[1.0,\"#fde725\"]]},\"yaxis\":{\"showgrid\":false,\"showline\":true,\"gridcolor\":\"rgb(232,232,232)\",\"zeroline\":false,\"ticks\":\"outside\",\"title\":{\"standoff\":15},\"zerolinecolor\":\"rgb(36,36,36)\",\"automargin\":true,\"linecolor\":\"rgb(36,36,36)\"},\"shapedefaults\":{\"line\":{\"width\":0},\"fillcolor\":\"black\",\"opacity\":0.3},\"hoverlabel\":{\"align\":\"left\"},\"mapbox\":{\"style\":\"light\"},\"polar\":{\"angularaxis\":{\"showgrid\":false,\"showline\":true,\"gridcolor\":\"rgb(232,232,232)\",\"ticks\":\"outside\",\"linecolor\":\"rgb(36,36,36)\"},\"bgcolor\":\"white\",\"radialaxis\":{\"showgrid\":false,\"showline\":true,\"gridcolor\":\"rgb(232,232,232)\",\"ticks\":\"outside\",\"linecolor\":\"rgb(36,36,36)\"}},\"autotypenumbers\":\"strict\",\"font\":{\"color\":\"rgb(36,36,36)\"},\"ternary\":{\"baxis\":{\"showgrid\":false,\"showline\":true,\"gridcolor\":\"rgb(232,232,232)\",\"ticks\":\"outside\",\"linecolor\":\"rgb(36,36,36)\"},\"bgcolor\":\"white\",\"caxis\":{\"showgrid\":false,\"showline\":true,\"gridcolor\":\"rgb(232,232,232)\",\"ticks\":\"outside\",\"linecolor\":\"rgb(36,36,36)\"},\"aaxis\":{\"showgrid\":false,\"showline\":true,\"gridcolor\":\"rgb(232,232,232)\",\"ticks\":\"outside\",\"linecolor\":\"rgb(36,36,36)\"}},\"annotationdefaults\":{\"arrowhead\":0,\"arrowwidth\":1},\"plot_bgcolor\":\"white\",\"title\":{\"x\":0.05},\"scene\":{\"xaxis\":{\"showgrid\":false,\"showline\":true,\"gridcolor\":\"rgb(232,232,232)\",\"gridwidth\":2,\"backgroundcolor\":\"white\",\"zeroline\":false,\"ticks\":\"outside\",\"showbackground\":true,\"zerolinecolor\":\"rgb(36,36,36)\",\"linecolor\":\"rgb(36,36,36)\"},\"zaxis\":{\"showgrid\":false,\"showline\":true,\"gridcolor\":\"rgb(232,232,232)\",\"gridwidth\":2,\"backgroundcolor\":\"white\",\"zeroline\":false,\"ticks\":\"outside\",\"showbackground\":true,\"zerolinecolor\":\"rgb(36,36,36)\",\"linecolor\":\"rgb(36,36,36)\"},\"yaxis\":{\"showgrid\":false,\"showline\":true,\"gridcolor\":\"rgb(232,232,232)\",\"gridwidth\":2,\"backgroundcolor\":\"white\",\"zeroline\":false,\"ticks\":\"outside\",\"showbackground\":true,\"zerolinecolor\":\"rgb(36,36,36)\",\"linecolor\":\"rgb(36,36,36)\"}},\"colorway\":[\"#1F77B4\",\"#FF7F0E\",\"#2CA02C\",\"#D62728\",\"#9467BD\",\"#8C564B\",\"#E377C2\",\"#7F7F7F\",\"#BCBD22\",\"#17BECF\"]},\"data\":{\"barpolar\":[{\"type\":\"barpolar\",\"marker\":{\"line\":{\"color\":\"white\",\"width\":0.5}}}],\"carpet\":[{\"aaxis\":{\"gridcolor\":\"white\",\"endlinecolor\":\"rgb(36,36,36)\",\"minorgridcolor\":\"white\",\"startlinecolor\":\"rgb(36,36,36)\",\"linecolor\":\"white\"},\"type\":\"carpet\",\"baxis\":{\"gridcolor\":\"white\",\"endlinecolor\":\"rgb(36,36,36)\",\"minorgridcolor\":\"white\",\"startlinecolor\":\"rgb(36,36,36)\",\"linecolor\":\"white\"}}],\"scatterpolar\":[{\"type\":\"scatterpolar\",\"marker\":{\"colorbar\":{\"ticks\":\"outside\",\"outlinewidth\":1,\"tickcolor\":\"rgb(36,36,36)\"}}}],\"parcoords\":[{\"line\":{\"colorbar\":{\"ticks\":\"outside\",\"outlinewidth\":1,\"tickcolor\":\"rgb(36,36,36)\"}},\"type\":\"parcoords\"}],\"scatter\":[{\"type\":\"scatter\",\"marker\":{\"colorbar\":{\"ticks\":\"outside\",\"outlinewidth\":1,\"tickcolor\":\"rgb(36,36,36)\"}}}],\"histogram2dcontour\":[{\"colorbar\":{\"ticks\":\"outside\",\"outlinewidth\":1,\"tickcolor\":\"rgb(36,36,36)\"},\"type\":\"histogram2dcontour\",\"colorscale\":[[0.0,\"#440154\"],[0.1111111111111111,\"#482878\"],[0.2222222222222222,\"#3e4989\"],[0.3333333333333333,\"#31688e\"],[0.4444444444444444,\"#26828e\"],[0.5555555555555556,\"#1f9e89\"],[0.6666666666666666,\"#35b779\"],[0.7777777777777778,\"#6ece58\"],[0.8888888888888888,\"#b5de2b\"],[1.0,\"#fde725\"]]}],\"contour\":[{\"colorbar\":{\"ticks\":\"outside\",\"outlinewidth\":1,\"tickcolor\":\"rgb(36,36,36)\"},\"type\":\"contour\",\"colorscale\":[[0.0,\"#440154\"],[0.1111111111111111,\"#482878\"],[0.2222222222222222,\"#3e4989\"],[0.3333333333333333,\"#31688e\"],[0.4444444444444444,\"#26828e\"],[0.5555555555555556,\"#1f9e89\"],[0.6666666666666666,\"#35b779\"],[0.7777777777777778,\"#6ece58\"],[0.8888888888888888,\"#b5de2b\"],[1.0,\"#fde725\"]]}],\"scattercarpet\":[{\"type\":\"scattercarpet\",\"marker\":{\"colorbar\":{\"ticks\":\"outside\",\"outlinewidth\":1,\"tickcolor\":\"rgb(36,36,36)\"}}}],\"mesh3d\":[{\"colorbar\":{\"ticks\":\"outside\",\"outlinewidth\":1,\"tickcolor\":\"rgb(36,36,36)\"},\"type\":\"mesh3d\"}],\"surface\":[{\"colorbar\":{\"ticks\":\"outside\",\"outlinewidth\":1,\"tickcolor\":\"rgb(36,36,36)\"},\"type\":\"surface\",\"colorscale\":[[0.0,\"#440154\"],[0.1111111111111111,\"#482878\"],[0.2222222222222222,\"#3e4989\"],[0.3333333333333333,\"#31688e\"],[0.4444444444444444,\"#26828e\"],[0.5555555555555556,\"#1f9e89\"],[0.6666666666666666,\"#35b779\"],[0.7777777777777778,\"#6ece58\"],[0.8888888888888888,\"#b5de2b\"],[1.0,\"#fde725\"]]}],\"scattermapbox\":[{\"type\":\"scattermapbox\",\"marker\":{\"colorbar\":{\"ticks\":\"outside\",\"outlinewidth\":1,\"tickcolor\":\"rgb(36,36,36)\"}}}],\"scattergeo\":[{\"type\":\"scattergeo\",\"marker\":{\"colorbar\":{\"ticks\":\"outside\",\"outlinewidth\":1,\"tickcolor\":\"rgb(36,36,36)\"}}}],\"histogram\":[{\"type\":\"histogram\",\"marker\":{\"line\":{\"color\":\"white\",\"width\":0.6}}}],\"pie\":[{\"type\":\"pie\",\"automargin\":true}],\"choropleth\":[{\"colorbar\":{\"ticks\":\"outside\",\"outlinewidth\":1,\"tickcolor\":\"rgb(36,36,36)\"},\"type\":\"choropleth\"}],\"heatmapgl\":[{\"colorbar\":{\"ticks\":\"outside\",\"outlinewidth\":1,\"tickcolor\":\"rgb(36,36,36)\"},\"type\":\"heatmapgl\",\"colorscale\":[[0.0,\"#440154\"],[0.1111111111111111,\"#482878\"],[0.2222222222222222,\"#3e4989\"],[0.3333333333333333,\"#31688e\"],[0.4444444444444444,\"#26828e\"],[0.5555555555555556,\"#1f9e89\"],[0.6666666666666666,\"#35b779\"],[0.7777777777777778,\"#6ece58\"],[0.8888888888888888,\"#b5de2b\"],[1.0,\"#fde725\"]]}],\"bar\":[{\"type\":\"bar\",\"error_y\":{\"color\":\"rgb(36,36,36)\"},\"error_x\":{\"color\":\"rgb(36,36,36)\"},\"marker\":{\"line\":{\"color\":\"white\",\"width\":0.5}}}],\"heatmap\":[{\"colorbar\":{\"ticks\":\"outside\",\"outlinewidth\":1,\"tickcolor\":\"rgb(36,36,36)\"},\"type\":\"heatmap\",\"colorscale\":[[0.0,\"#440154\"],[0.1111111111111111,\"#482878\"],[0.2222222222222222,\"#3e4989\"],[0.3333333333333333,\"#31688e\"],[0.4444444444444444,\"#26828e\"],[0.5555555555555556,\"#1f9e89\"],[0.6666666666666666,\"#35b779\"],[0.7777777777777778,\"#6ece58\"],[0.8888888888888888,\"#b5de2b\"],[1.0,\"#fde725\"]]}],\"contourcarpet\":[{\"colorbar\":{\"ticks\":\"outside\",\"outlinewidth\":1,\"tickcolor\":\"rgb(36,36,36)\"},\"type\":\"contourcarpet\"}],\"table\":[{\"type\":\"table\",\"header\":{\"line\":{\"color\":\"white\"},\"fill\":{\"color\":\"rgb(217,217,217)\"}},\"cells\":{\"line\":{\"color\":\"white\"},\"fill\":{\"color\":\"rgb(237,237,237)\"}}}],\"scatter3d\":[{\"line\":{\"colorbar\":{\"ticks\":\"outside\",\"outlinewidth\":1,\"tickcolor\":\"rgb(36,36,36)\"}},\"type\":\"scatter3d\",\"marker\":{\"colorbar\":{\"ticks\":\"outside\",\"outlinewidth\":1,\"tickcolor\":\"rgb(36,36,36)\"}}}],\"scattergl\":[{\"type\":\"scattergl\",\"marker\":{\"colorbar\":{\"ticks\":\"outside\",\"outlinewidth\":1,\"tickcolor\":\"rgb(36,36,36)\"}}}],\"histogram2d\":[{\"colorbar\":{\"ticks\":\"outside\",\"outlinewidth\":1,\"tickcolor\":\"rgb(36,36,36)\"},\"type\":\"histogram2d\",\"colorscale\":[[0.0,\"#440154\"],[0.1111111111111111,\"#482878\"],[0.2222222222222222,\"#3e4989\"],[0.3333333333333333,\"#31688e\"],[0.4444444444444444,\"#26828e\"],[0.5555555555555556,\"#1f9e89\"],[0.6666666666666666,\"#35b779\"],[0.7777777777777778,\"#6ece58\"],[0.8888888888888888,\"#b5de2b\"],[1.0,\"#fde725\"]]}],\"scatterternary\":[{\"type\":\"scatterternary\",\"marker\":{\"colorbar\":{\"ticks\":\"outside\",\"outlinewidth\":1,\"tickcolor\":\"rgb(36,36,36)\"}}}],\"scatterpolargl\":[{\"type\":\"scatterpolargl\",\"marker\":{\"colorbar\":{\"ticks\":\"outside\",\"outlinewidth\":1,\"tickcolor\":\"rgb(36,36,36)\"}}}]}},\"barmode\":\"overlay\",\"margin\":{\"l\":50,\"b\":50,\"r\":50,\"t\":60},\"yaxis\":{\"title\":\"Frequency\"}},\n        {\"editable\":false,\"responsive\":true,\"staticPlot\":false,\"scrollZoom\":true},\n    )\n}\n\n        });\n    </script>\n</div>\n```\n:::\n:::\n\n\n\n\n\n## References\n\n",
    "supporting": [
      "index_files/figure-html"
    ],
    "filters": [],
    "includes": {
      "include-in-header": [
        "<script src=\"https://cdnjs.cloudflare.com/ajax/libs/require.js/2.3.6/require.min.js\" integrity=\"sha512-c3Nl8+7g4LMSTdrm621y7kf9v3SDPnhxLNhcjFJbKECVnmZHTdo+IRO05sNLTH/D3vA6u1X32ehoLC7WFVdheg==\" crossorigin=\"anonymous\"></script>\n<script src=\"https://cdnjs.cloudflare.com/ajax/libs/jquery/3.5.1/jquery.min.js\" integrity=\"sha512-bLT0Qm9VnAYZDflyKcBaQ2gg0hSYNQrJ8RilYldYQ1FxQYoCLtUjuuRuZo+fjqhx/qtq/1itJ0C2ejDxltZVFg==\" crossorigin=\"anonymous\" data-relocate-top=\"true\"></script>\n<script type=\"application/javascript\">define('jquery', [],function() {return window.jQuery;})</script>\n<script type=\"text/javascript\">\nwindow.PlotlyConfig = {MathJaxConfig: 'local'};\n</script>\n<script type=\"text/javascript\">\nif (window.MathJax) {MathJax.Hub.Config({SVG: {font: \"STIX-Web\"}});}\n</script>\n<script type=\"text/javascript\">\n    if (typeof require !== 'undefined') {\n        require.undef(\"plotly\");\n        requirejs.config({\n            paths: {\n                'plotly': ['https://cdn.plot.ly/plotly-2.3.0.min']\n            }\n        });\n        require(['plotly'], function(Plotly) {\n            window._Plotly = Plotly;\n        });\n    }\n</script>\n\n"
      ]
    }
  }
}